﻿.THUMB				
.ALIGN  2			
.GLOBL				{{NAME}}

.THUMB_FUNC			
{{NAME}}:		

push { r4-r7, lr }	

@ EDIT FROM HERE



@ DON'T GO PAST HERE

pop { r4-r7 }
pop { r3 }
					
bx r3
@ ==================================
